
{
    "reimbursementDetails": [
        {
            "reimbursementId": 13,
            "reimbursementDate": "2019-11-21",
            "empNo": "EMP001",
            "totalCost": 6000
        },
        {
            "reimbursementId": 5,
            "reimbursementDate": "2019-11-20",
            "empNo": "EMP001",
            "totalCost": 6000
        },
        {
            "reimbursementId": 10,
            "reimbursementDate": "2019-11-19",
            "empNo": "EMP002",
            "totalCost": 14000
        },
        {
            "reimbursementId": 4,
            "reimbursementDate": "2019-11-18",
            "empNo": "EMP001",
            "totalCost": 6000
        },
        {
            "reimbursementId": 11,
            "reimbursementDate": "2019-11-17",
            "empNo": "EMP002",
            "totalCost": 19000
        }
    ],
    "pageable": {
        "sort": {
            "sorted": true,
            "unsorted": false,
            "empty": false
        },
        "offset": 0,
        "pageNumber": 0,
        "pageSize": 5,
        "paged": true,
        "unpaged": false
    },
    "number": 0,
    "numberOfElements": 5,
    "size": 5,
    "totalElements": 14,
    "totalPages": 3
}